{
  "YDR384C": "Q12359", 
  "YER022W": "P32569", 
  "YER063W": "P40040", 
  "YDR481C": "P11491", 
  "YER014W": "P40012", 
  "YER172C": "P32639", 
  "YER164W": "P32657", 
  "YDR459C": "Q03289", 
  "YEL003W": "P40005", 
  "YDR364C": "P40968", 
  "YDR503C": "Q04396", 
  "YBL051C": "P34217", 
  "TPHA0D01690": "G8BSI8", 
  "CAGL0A00165g": "Q6FXW0", 
  "YEL058W": "P38628", 
  "YDR488C": "P40960", 
  "YFL034C-B": "P43563", 
  "YEL042W": "P32621", 
  "YEL020C": "P0C5M6", 
  "YFL045C": "P07283", 
  "YDR446W": "Q04110", 
  "YER149C": "P40091", 
  "YBL037W": "P38065", 
  "YEL019C": "P38632", 
  "YER126C": "P40078", 
  "YBL090W": "P38175", 
  "YDR486C": "Q03390", 
  "YEL056W": "P39984", 
  "KAFR0C03410": "H2ASI3", 
  "YDR363W": "Q06340", 
  "YBL047C": "P34216", 
  "YDR260C": "Q12379", 
  "YEL051W": "P32610", 
  "YEL029C": "P39988", 
  "YER179W": "P25453", 
  "YDR373W": "Q06389", 
  "YDR322W": "Q06678", 
  "Kpol_1053.27": "[null]", 
  "YDR299W": "Q06631", 
  "Cgla_12.trna20G": "[null]", 
  "YDR201W": "Q03954", 
  "YDR254W": "P38907", 
  "CAGL0D06226g": "Q6FVR7", 
  "YDR196C": "Q03941", 
  "YER142C": "P22134", 
  "YDR354W": "P07285", 
  "YDR239C": "Q03780", 
  "YDR410C": "P32584", 
  "NCAS0I01160": "G0VJV3", 
  "KLLA0C05896g": "Q6CUC9", 
  "YDR242W": "P22580", 
  "YDR180W": "Q04002", 
  "YHR199C-A": "Q3E7Y6", 
  "YAL054C": "Q01574", 
  "YDR198C": "Q03942", 
  "YER052C": "P10869", 
  "TBLA0B06310": "I2GZA3", 
  "YDR476C": "P21147", 
  "YER003C": "P29952", 
  "YER068W": "P34909", 
  "YER013W": "P24384", 
  "YDR173C": "P07250", 
  "YDR404C": "P34087", 
  "YCL057W": "P25375", 
  "YDR286C": "Q54N68", 
  "YGL230C": "P53074", 
  "YEL013W": "P39968", 
  "YBL076C": "P09436", 
  "CAGL0A02882g": "Q6FY51", 
  "YBL060W": "P34225", 
  "KAFR0C02180": "H2AS61", 
  "TPHA0Otrna10R": "[null]", 
  "YEL055C": "P39985", 
  "YDR380W": "Q06408", 
  "YDR381C-A": "P54783", 
  "YER159C": "P40096", 
  "YDR527W": "Q04418", 
  "YDR499W": "Q04377", 
  "YFL039C": "P60010", 
  "YDR485C": "Q03388", 
  "TPHA0B04300": "G8BQ18", 
  "CAGL0B01595g": "Q6FXA0", 
  "YDR449C": "Q02354", 
  "YHR126C": "P38832", 
  "YER077C": "P40050", 
  "YBL042C": "P38196", 
  "YDR316W": "Q06668", 
  "YEL017W": "P39996", 
  "YBL099W": "P07251", 
  "YDR363W-A": "O94742", 
  "YDR379C-A": "Q3E785", 
  "YEL007W": "P40002", 
  "Suva_15.364": "[null]", 
  "YDR479C": "P38848", 
  "YDR517W": "Q04410", 
  "YDR346C": "Q05515", 
  "YBL078C": "P38182", 
  "YDR419W": "Q04049", 
  "YDR378C": "Q06406", 
  "YDR320C-A": "P69851", 
  "YBL086C": "P38177", 
  "YDR421W": "Q04052", 
  "Suva_13.12": "[null]", 
  "KAFR0G00420": "H2AXH5", 
  "CAGL0M10065g": "Q6FJ10", 
  "YDR249C": "Q03787", 
  "YEL032W": "P24279", 
  "YER145C": "P40088", 
  "KNAG0E00820": "J7R667", 
  "YER110C": "P40069", 
  "YFL009W": "P07834", 
  "YDR330W": "Q06682", 
  "YER091C": "P05694", 
  "YDR435C": "Q04081", 
  "YER151C": "Q01477", 
  "YDR306C": "Q12018", 
  "YDR216W": "P07248", 
  "Kpol_295.6": "[null]", 
  "YDR454C": "P15454", 
  "YEL025C": "P39991", 
  "YER055C": "P00498", 
  "YDR403W": "P21623", 
  "YBL063W": "P28742", 
  "YBL058W": "P34223", 
  "YDR226W": "P07170", 
  "YDR289C": "Q05543", 
  "YDR234W": "P49367", 
  "YDR295C": "Q06629", 
  "YER009W": "P33331", 
  "KAFR0F03770": "H2AX73", 
  "YDR246W": "Q03784", 
  "YDR192C": "P49686", 
  "YER041W": "P40028", 
  "YDR229W": "Q04934", 
  "YDR464W": "P38904", 
  "YER007W": "P39937", 
  "CAGL0G03201g": "Q6FTE2", 
  "YER167W": "P33306", 
  "YDR328C": "P52286", 
  "YOR180C": "Q08558", 
  "YER107C": "P40066", 
  "YBL052C": "P34218", 
  "YDR282C": "Q05648", 
  "KAFR0L01570": "H2B2B7", 
  "YBL064C": "P34227", 
  "YDR408C": "P04161", 
  "YDR311W": "P32776", 
  "YDR472W": "Q03337", 
  "CAGL0M01870g": "Q6FK18", 
  "YDR177W": "P21734", 
  "YEL043W": "P53253", 
  "CAGL0A00583g": "Q6FXY4", 
  "CAGL0J04972g": "Q6FPC2", 
  "YEL018W": "P39995", 
  "YEL011W": "P32775", 
  "YER125W": "P39940", 
  "YBL091C": "P38174", 
  "YDR432W": "Q01560", 
  "YBL071W-A": "Q3E840", 
  "YER115C": "Q01684", 
  "YEL021W": "P03962", 
  "YER152C": "P10356", 
  "YER148W": "P13393", 
  "YER082C": "P40055", 
  "YDR523C": "P08458", 
  "YER044C-A": "P29467", 
  "YDR469W": "Q03323", 
  "YDR372C": "Q06385", 
  "YDR333C": "Q05468", 
  "YDR402C": "P21595", 
  "YDR416W": "Q04048", 
  "YDR323C": "P32609", 
  "YDR322C-A": "P81449", 
  "YER073W": "P40047", 
  "YEL050C": "P32611", 
  "YDR219C": "Q04922", 
  "YDR179C": "Q03981", 
  "CAGL0K02013g": "Q6FN81", 
  "KAFR0A03800": "H2AN65", 
  "YBL098W": "P38169", 
  "YBL082C": "P38179", 
  "YER030W": "P40019", 
  "YDR212W": "P12612", 
  "TPHA0G00460": "G8BVF4", 
  "YDR302W": "Q06636", 
  "YDR415C": "Q04033", 
  "YER155C": "P39960", 
  "YDR268W": "P04803", 
  "YDR334W": "Q05471", 
  "YDR397C": "Q92317", 
  "TPHA0H02900": "G8BWP2", 
  "YER141W": "P40086", 
  "YDR204W": "O13525", 
  "YDR425W": "Q04053", 
  "YDR390C": "P52488", 
  "TPHA0G03430": "G8BWA5", 
  "YER051W": "P40034", 
  "YER004W": "P40008", 
  "YDR477W": "P06782", 
  "YDR285W": "P31111", 
  "TBLA0C01090": "I2H0M2", 
  "YDR519W": "P32472", 
  "YER069W": "Q01217", 
  "YER012W": "P22141", 
  "YBL057C": "P34222", 
  "YDR407C": "Q04183", 
  "YDR225W": "P04911", 
  "YDR172W": "P05453", 
  "YDR291W": "Q05549", 
  "TBLA0A02810": "I2GVC7", 
  "YDR168W": "P06101", 
  "YDR169C": "Q12427", 
  "YBL041W": "P23724", 
  "YOL130W": "Q08269", 
  "YER173W": "P32641", 
  "YER023W": "P32263", 
  "YER163C": "P32656", 
  "CAGL0I08613g": "Q6FQ71", 
  "Kpol_1010.45": "[null]", 
  "YDR374W-A": "Q2V2P8", 
  "YDR399W": "Q04178", 
  "YFL036W": "P13433", 
  "YDR207C": "P39001", 
  "YDR512C": "Q04406", 
  "YDR365C": "Q06344", 
  "YDR315C": "Q06667", 
  "TBLA0I02020": "I2H908", 
  "YDR493W": "Q03429", 
  "YDR179W-A": "Q03983", 
  "CAGL0A01243g": "Q6FXZ7", 
  "YBL102W": "P38166", 
  "YDR460W": "Q03290", 
  "YER180C": "P32645", 
  "YBL095W": "P38173", 
  "TPHA0H02090": "G8BWG2", 
  "YER053C-A": "P17898", 
  "YDR347W": "P10662", 
  "YFL041W": "P43561", 
  "YER111C": "P25302", 
  "YEL031W": "P39986", 
  "YBL081W": "P38180", 
  "YDR248C": "Q03786", 
  "YFL040W": "P43562", 
  "YER156C": "P40093", 
  "YER086W": "P00927", 
  "YDR337W": "P21771", 
  "YEL038W": "P32626", 
  "CAGL0G02519g": "Q6FTH2", 
  "YDR420W": "P41809", 
  "YER168C": "P21269", 
  "YDR217C": "P14737", 
  "YEL026W": "P39990", 
  "TPHA0E03200": "G8BU32", 
  "YDR392W": "P06844", 
  "Kpol_1061.trna3D": "[null]", 
  "YDR267C": "Q05583", 
  "YER090W": "P00899", 
  "YDR388W": "P39743", 
  "YDR307W": "Q06644", 
  "YER048C": "P39101", 
  "YDR231C": "Q04935", 
  "NCAS0D01050": "G0VDP8", 
  "NCAS0A14070": "G0V916", 
  "YDR188W": "P39079", 
  "YOL047C": "Q08218", 
  "YER046W": "P40031", 
  "CAGL0M12881g": "Q6SZS5", 
  "YER034W": "P40022", 
  "YJR076C": "P32458", 
  "CAGL0M05137g": "Q6FJM5", 
  "YDR411C": "Q12743", 
  "CAGL0D03872g": "Q6FW10", 
  "YDR181C": "Q04003", 
  "YML053C": "Q04978", 
  "YDR255C": "Q12508", 
  "YFL049W": "P43554", 
  "YDR279W": "Q05635", 
  "YDR195W": "P42073", 
  "YDR357C": "Q06333", 
  "CAGL0H01749g": "Q6FSB9", 
  "Kpol_YGOB_11176": "[null]", 
  "YEL012W": "P28263", 
  "TPHA0I03140": "G8BY37", 
  "NCAS0Atrna9V": "[null]", 
  "YER106W": "P40065", 
  "YER016W": "P40013", 
  "CAGL0M01914g": "Q6FK16", 
  "YDR386W": "Q04149", 
  "YEL004W": "P40004", 
  "YDR329C": "P28795", 
  "YER079W": "P40052", 
  "YER024W": "P40017", 
  "YDR473C": "Q03338", 
  "TPHA0N00520": "G8C104", 
  "YDR494W": "Q03430", 
  "YDR310C": "P46676", 
  "YDR382W": "P02400", 
  "YEL044W": "P32617", 
  "YER049W": "P40032", 
  "YDR427W": "Q04062", 
  "YDR176W": "P32494", 
  "YDR381W": "Q12159", 
  "YDR484W": "P39904", 
  "YER136W": "P39958", 
  "YER116C": "P40072", 
  "YDR448W": "Q02336", 
  "YBL092W": "P38061", 
  "CAGL0H08712g": "Q6FRG7", 
  "YBL045C": "P07256", 
  "YDR524C": "Q04412", 
  "YDR375C": "P32839", 
  "YDR287W": "Q05533", 
  "YEL037C": "P32628", 
  "YDR361C": "Q06338", 
  "YDR320C": "P69851", 
  "YAL058W": "P27825", 
  "YDR452W": "Q04119", 
  "YDR319C": "Q06676", 
  "YEL009C": "P03069", 
  "YER033C": "P40021", 
  "YDR294C": "Q05567", 
  "YDR301W": "Q06632", 
  "TPHA0A02420": "G8BN47", 
  "YOR172W": "Q12340", 
  "YDR186C": "Q04007", 
  "YBL038W": "P38064", 
  "YDR424C": "Q02647", 
  "YFL044C": "P43558", 
  "YER094C": "P25451", 
  "YDR412W": "Q04031", 
  "YER140W": "Q12232", 
  "YER042W": "P40029", 
  "YDR288W": "Q05541", 
  "Kpol_1004.25": "[null]", 
  "YDR317W": "Q06674", 
  "YDR296W": "Q06630", 
  "YDR221W": "Q04924", 
  "Cgla_7.trna1P": "[null]", 
  "YDR235W": "Q03776", 
  "YER038C": "P40026", 
  "YBL074C": "P32357", 
  "YDR191W": "P53688", 
  "YDR232W": "P09950", 
  "YDR245W": "P50108", 
  "YDR228C": "P39081", 
  "YER133W": "P32598", 
  "YER020W": "P10823", 
  "YER162C": "P14736", 
  "YOR020W-A": "Q3E824", 
  "YDR511W": "Q04401", 
  "KNAG0G01090": "J7S0U6", 
  "TBLA0A05860": "I2GW77", 
  "YDR529C": "P00128", 
  "YDR339C": "Q05498", 
  "YDR398W": "Q04177", 
  "YFL037W": "P02557", 
  "YBL040C": "P18414", 
  "YER123W": "P39962", 
  "YER075C": "P40048", 
  "YEL015W": "P39998", 
  "YBL103C": "P38165", 
  "YEL040W": "P32623", 
  "YER061C": "P39525", 
  "YDR314C": "Q06665", 
  "TBLA0E03610": "I2H4W3", 
  "Suva_15.267": "[null]", 
  "YER183C": "P40099", 
  "YEL001C": "P40006", 
  "KAFR0H03690": "H2AYK2", 
  "KAFR0J02320": "H2B0Z6", 
  "YER112W": "P40070", 
  "YBL084C": "P38042", 
  "YFL047W": "P43556", 
  "YER124C": "P40077", 
  "YER153C": "P10355", 
  "YDR371W": "Q06350", 
  "YDR456W": "Q04121", 
  "YDR308C": "P47822", 
  "YDR349C": "Q06325", 
  "YDR520C": "Q04411", 
  "YDR214W": "Q12449", 
  "YBL049W": "P38191", 
  "YDR468C": "Q03322", 
  "YEL053C": "Q02197", 
  "YDR444W": "Q04093", 
  "YER072W": "P40046", 
  "TBLA0A04020": "I2GVP6", 
  "YDR236C": "Q03778", 
  "KAFR0A05080": "H2ANJ4", 
  "YER047C": "P39955", 
  "YDR189W": "P22213", 
  "YDR208W": "P38994", 
  "YDR182W": "P40986", 
  "YDR190C": "Q03940", 
  "KAFR0D01260": "H2ATS2", 
  "KNAG0G00550": "J7S0R3", 
  "YDR276C": "P87284", 
  "YDR194C": "P15424", 
  "YDR240C": "Q03782", 
  "TBLA0B08570": "I2GZX0", 
  "KAFR0F01270": "H2AWH3", 
  "YDR256C": "P15202", 
  "YBL046W": "P38193", 
  "YER029C": "P40018", 
  "YDR466W": "Q03306", 
  "YER005W": "P40009", 
  "CAGL0D05434g": "Q6FVU9", 
  "YER050C": "P40033", 
  "TBLA0A03770": "I2GVM3", 
  "YIL102C-A": "Q2V2P5", 
  "TBLA0H02930": "I2H875", 
  "Smik_12.222": "[null]", 
  "YDR470C": "Q03327", 
  "YER093C": "P87275", 
  "Kpol_480.4": "[null]", 
  "YER011W": "P10863", 
  "YDR175C": "Q03976", 
  "YBL066C": "P34228", 
  "YDR284C": "Q05521", 
  "YBR259W": "P38338", 
  "YDR292C": "P32916", 
  "Cgla_9.trna3P": "[null]", 
  "YER018C": "P40014", 
  "YDR224C": "P02293", 
  "YDR369C": "P33301", 
  "YER127W": "P40079", 
  "TBLA0A05410": "I2GW32", 
  "TBLA0A03370": "I2GVI5", 
  "YBL093C": "P25046", 
  "KAFR0A01840": "H2AMM2", 
  "YJL206C": "P39529", 
  "YER083C": "P40056", 
  "YEL027W": "P25515", 
  "YDR350C": "P50273", 
  "YDR258C": "P33416", 
  "KAFR0D00690": "H2ATL6", 
  "YER137C": "P0CX70", 
  "YKL023W": "P36103", 
  "YDR430C": "P32898", 
  "YDR487C": "Q99258", 
  "YER071C": "P40045", 
  "YDR324C": "Q06679", 
  "YDR261C": "P52911", 
  "YER065C": "P28240", 
  "YDR318W": "Q06675", 
  "YFL034W": "P05317", 
  "YDR374C": "Q06390", 
  "YDR119W-A": "Q2V2P9", 
  "YER080W": "P40053", 
  "YER178W": "P16387", 
  "YDR362C": "Q06339", 
  "YDR321W": "P38986", 
  "CAGL0B00440g": "Q6FX65", 
  "TPHA0P00140": "G8C1Z4", 
  "YBL059C-A": "Q3E7A4", 
  "TPHA0F00490": "G8BUV4", 
  "YBL080C": "P33893", 
  "KNAG0K00840": "J7RC31", 
  "YDR356W": "P32380", 
  "YDR167W": "Q12030", 
  "YEL005C": "P40003", 
  "YDR262W": "Q12331", 
  "YER147C": "P40090", 
  "YDR462W": "P36527", 
  "YDR332W": "Q06683", 
  "YER087W": "P39965", 
  "YDR440W": "Q04089", 
  "YDR359C": "Q06337", 
  "NCAS0J00440": "G0VKI8", 
  "YDR266C": "Q05580", 
  "YDR395W": "Q04175", 
  "Scer_YGOB_Anc_7.495": "[null]", 
  "YER157W": "P40094", 
  "NCAS0J02070": "G0VKZ8", 
  "YDR210W": "Q03480", 
  "YDR437W": "Q04082", 
  "YEL059C-A": "Q05676", 
  "Suva_10.240": "[null]", 
  "YER053C": "P17898", 
  "YDR405W": "P32387", 
  "YAL055W": "P39718", 
  "YER043C": "P39954", 
  "YER100W": "P33296", 
  "Suva_13.48": "[null]", 
  "YER002W": "P40007", 
  "YDR170C": "P11075", 
  "KAFR0D05020": "H2AUU9", 
  "YDR244W": "P35056", 
  "YDR297W": "P38992", 
  "NCAS0J00530": "G0VKJ6", 
  "YEL062W": "P39923", 
  "YOR012W": "Q12479", 
  "YER025W": "P32481", 
  "YDR387C": "Q04162", 
  "YER015W": "P39518", 
  "YER078C": "P40051", 
  "YER130C": "P39959", 
  "YER095W": "P25454", 
  "YDR428C": "Q04066", 
  "YDR439W": "Q04087", 
  "YER165W": "P04147", 
  "Kpol_1018.59": "[null]", 
  "YER109C": "P40068", 
  "YER171W": "P06839", 
  "YDR489W": "Q03406", 
  "YDR313C": "Q06651", 
  "Smik_3.143": "[null]", 
  "NCAS0A03120": "G0V5Y2", 
  "YEL002C": "P33767", 
  "YBL050W": "P32602", 
  "YEL036C": "P32629", 
  "YDR280W": "Q05636", 
  "TBLA0A07010": "I2GWJ0", 
  "YEL023C": "P39992", 
  "KAFR0H02470": "H2AZA0", 
  "YER113C": "P40071", 
  "YFL046W": "P43557", 
  "YMR222C": "Q05015", 
  "YDR422C": "P32578", 
  "KAFR0G03150": "H2AY97", 
  "YDR457W": "Q03280", 
  "YEL024W": "P08067", 
  "CAGL0M02321g": "Q6FJZ7", 
  "YDR370C": "Q06349", 
  "YER092W": "P40060", 
  "YDR434W": "Q04080", 
  "YDR265W": "Q05568", 
  "CAGL0J05786g": "Q6FP87", 
  "YDR331W": "P49018", 
  "KAFR0F02930": "H2AWY9", 
  "YER044C": "P40030", 
  "YDR298C": "P09457", 
  "YDR011W": "P32568", 
  "YER074W-A": "Q3E834", 
  "YER032W": "P40020", 
  "Cgla_10.trna6L": "[null]", 
  "YDR352W": "Q06328", 
  "YDR525W-A": "P56508", 
  "YDR238C": "P41810", 
  "YKL065W-A": "Q2V2P2", 
  "YER170W": "P26364", 
  "YDR202C": "Q03956", 
  "YDR243C": "P23394", 
  "YDR495C": "P23643", 
  "YDR197W": "P14905", 
  "TPHA0J01490": "G8BYM8", 
  "TPHA0B03950": "G8BPY6", 
  "YER128W": "P40080", 
  "YER143W": "P40087", 
  "YER006W": "P40010", 
  "YDR237W": "P36519", 
  "YER026C": "P08456", 
  "YER182W": "P40098", 
  "YDR465C": "Q03305", 
  "YER010C": "P40011", 
  "YER176W": "P32644", 
  "CAGL0K05687g": "Q6FMS1", 
  "CAGL0K03245g": "Q6FN28", 
  "YER104W": "P40063", 
  "YDR283C": "P15442", 
  "YEL046C": "P37303", 
  "YBL055C": "P34220", 
  "YDR293C": "P24276", 
  "YER007C-A": "P89886", 
  "YDR227W": "P11978", 
  "YDR376W": "P48360", 
  "YDR496C": "Q04373", 
  "YDR174W": "Q03973", 
  "YAL059W": "P39715", 
  "TPHA0O00620": "G8C1K4", 
  "YDR429C": "Q04067", 
  "YER118C": "P40073", 
  "YDR383C": "Q12493", 
  "YFL038C": "P01123", 
  "YER021W": "P40016", 
  "YEL048C": "P32613", 
  "YER122C": "P38682", 
  "YER134C": "P40081", 
  "YEL052W": "P32317", 
  "YER048W-A": "Q6Q560", 
  "YDR482C": "Q03375", 
  "YER161C": "P06843", 
  "YDR338C": "Q05497", 
  "YDR498C": "P28791", 
  "YDR183W": "Q04004", 
  "YDR461C-A": "Q2V2P7", 
  "YDR478W": "P40993", 
  "CAGL0D01265g": "P15113", 
  "YDR506C": "Q04399", 
  "CAGL0K07337g": "Q6FMK3", 
  "YDR377W": "Q06405", 
  "YDR510W": "Q12306", 
  "KAFR0E04230": "H2AW24", 
  "YLR146W-A": "Q2V2P1", 
  "YDR367W": "Q06346", 
  "YER058W": "Q02771", 
  "YDR531W": "Q04430", 
  "YMR089C": "P40341", 
  "CAGL0M10978g": "Q6FIX4", 
  "TBLA0G03640": "I2H7E6", 
  "YDR414C": "P16151", 
  "YDR532C": "Q04431", 
  "CAGL0B03883g": "Q6FXQ6", 
  "YDR184C": "Q04005", 
  "YDR335W": "P52918", 
  "YER175C": "P32643", 
  "YER146W": "P40089", 
  "YDR305C": "P49775", 
  "YDR205W": "Q03455", 
  "YDR394W": "P33298", 
  "YEL020W-A": "O74700", 
  "YER154W": "P39952", 
  "YBL097W": "P38170", 
  "YDR443C": "P38931", 
  "YDR211W": "P32501", 
  "YDR400W": "Q04179", 
  "YER056C": "P17064", 
  "TPHA0I02260": "G8BXV2", 
  "TPHA0F02770": "G8BUH1", 
  "YER036C": "P40024", 
  "TBLA0A10340": "I2GXG0", 
  "YDR393W": "Q04172", 
  "YDR336W": "Q05473", 
  "TPHA0J02710": "G8BYZ9", 
  "YER040W": "P18494", 
  "YBL088C": "P38110", 
  "KNAG0E02090": "J7S7S9", 
  "YER019W": "P40015", 
  "YER060W-A": "Q12119", 
  "YDR325W": "Q06680", 
  "YEL064C": "P39981", 
  "YER008C": "P33332", 
  "YDR257C": "Q12504"
}